********************************************************************************
Obsolete PIO Core v4.3.1 is used (previous was 4.3.4)
Please remove multiple PIO Cores from a system:
https://docs.platformio.org/page/faq.html#multiple-pio-cores-in-a-system
********************************************************************************
--- Available filters and text transformations: colorize, debug, default, direct, hexlify, log2file, nocontrol, printable, send_on_enter, time
--- More details at http://bit.ly/pio-monitor-filters
0 11 15848 -44 
1 11 10000 -40 
2 10 22387 -47 
3 10 15848 -44 
4 10 17782 -45 
5 10 15848 -44 
6 11 10000 -40 
7 10 19952 -46 
8 11 15848 -44 
9 10 141253 -63 
10 11 17782 -45 
11 10 15848 -44 
12 11 15848 -44 
13 10 15848 -44 
14 11 17782 -45 
15 10 17782 -45 
16 11 15848 -44 
17 10 14125 -43 
18 11 15848 -44 
19 10 17782 -45 
20 11 17782 -45 
21 10 12589 -42 
22 10 15848 -44 
23 10 15848 -44 
24 10 10000 -40 
25 11 15848 -44 
26 10 15848 -44 
27 11 8912 -39 
28 10 15848 -44 
29 11 8912 -39 
30 10 15848 -44 
31 11 11220 -41 
32 10 11220 -41 
33 11 17782 -45 
34 10 15848 -44 
35 10 15848 -44 
36 11 15848 -44 
37 11 14125 -43 
38 10 19952 -46 
39 11 15848 -44 
40 10 11220 -41 
41 11 14125 -43 
42 10 17782 -45 
43 11 15848 -44 
44 10 15848 -44 
45 11 8912 -39 
46 10 10000 -40 
47 10 14125 -43 
48 11 11220 -41 
49 10 8912 -39 
50 11 15848 -44 
51 10 15848 -44 
52 10 15848 -44 
53 11 8912 -39 
54 11 17782 -45 
55 10 19952 -46 
56 11 15848 -44 
57 10 15848 -44 
58 11 19952 -46 
59 10 11220 -41 
60 11 10000 -40 
61 11 19952 -46 
62 10 17782 -45 
63 11 15848 -44 
64 10 10000 -40 
65 10 17782 -45 
66 10 10000 -40 
67 11 17782 -45 
68 11 15848 -44 
69 10 10000 -40 
70 10 10000 -40 
71 10 17782 -45 
72 11 15848 -44 
73 10 19952 -46 
74 11 15848 -44 
75 10 10000 -40 
76 11 11220 -41 
77 10 17782 -45 
78 10 19952 -46 
79 11 10000 -40 
80 10 17782 -45 
81 11 8912 -39 
82 10 15848 -44 
83 11 15848 -44 
84 10 8912 -39 
85 11 17782 -45 
86 10 17782 -45 
87 10 17782 -45 
88 11 15848 -44 
89 10 17782 -45 
90 11 19952 -46 
91 11 8912 -39 
92 10 15848 -44 
93 11 8912 -39 
94 10 15848 -44 
95 11 15848 -44 
96 10 17782 -45 
97 11 17782 -45 
98 10 15848 -44 
99 11 17782 -45 
100 10 15848 -44 
101 11 15848 -44 
102 10 10000 -40 
103 10 15848 -44 
104 11 15848 -44 
105 10 15848 -44 
106 10 19952 -46 
107 10 11220 -41 
108 10 15848 -44 
109 10 17782 -45 
110 11 17782 -45 
111 10 17782 -45 
112 11 17782 -45 
113 10 12589 -42 
114 11 17782 -45 
115 10 10000 -40 
116 11 17782 -45 
117 11 17782 -45 
118 10 17782 -45 
119 11 17782 -45 
120 10 12589 -42 
121 11 17782 -45 
122 10 15848 -44 
123 11 19952 -46 
124 10 17782 -45 
125 11 11220 -41 
126 10 15848 -44 
127 10 17782 -45 
128 11 10000 -40 
129 10 15848 -44 
130 11 8912 -39 
131 10 15848 -44 
132 11 15848 -44 
133 10 10000 -40 
134 11 15848 -44 
135 10 17782 -45 
136 10 17782 -45 
137 10 17782 -45 
138 10 10000 -40 
139 11 17782 -45 
140 10 17782 -45 
141 11 11220 -41 
142 10 17782 -45 
143 11 17782 -45 
144 10 17782 -45 
145 10 10000 -40 
146 11 17782 -45 
147 10 15848 -44 
148 10 10000 -40 
149 10 15848 -44 
150 11 12589 -42 
151 10 10000 -40 
152 10 10000 -40 
153 10 11220 -41 
154 10 11220 -41 
155 11 17782 -45 
156 10 12589 -42 
157 11 17782 -45 
158 10 15848 -44 
159 11 10000 -40 
160 10 19952 -46 
161 11 10000 -40 
162 10 15848 -44 
163 11 10000 -40 
164 10 8912 -39 
165 11 15848 -44 
166 10 15848 -44 
167 11 17782 -45 
168 10 10000 -40 
169 11 10000 -40 
170 10 8912 -39 
171 11 10000 -40 
172 10 19952 -46 
173 11 8912 -39 
174 10 8912 -39 
175 10 17782 -45 
176 11 17782 -45 
177 10 17782 -45 
178 11 15848 -44 
179 10 141253 -63 
180 11 17782 -45 
181 10 15848 -44 
182 11 15848 -44 
183 10 11220 -41 
184 11 8912 -39 
185 11 17782 -45 
186 10 15848 -44 
187 11 15848 -44 
188 10 158489 -64 
189 10 10000 -40 
190 10 11220 -41 
191 11 15848 -44 
192 10 15848 -44 
193 11 11220 -41 
194 10 12589 -42 
195 10 10000 -40 
196 11 8912 -39 
197 10 17782 -45 
198 11 15848 -44 
199 10 8912 -39 
200 11 15848 -44 
201 10 10000 -40 
202 10 10000 -40 
203 10 11220 -41 
204 11 10000 -40 
205 10 17782 -45 
206 11 15848 -44 
207 10 15848 -44 
208 10 19952 -46 
209 10 17782 -45 
210 10 17782 -45 
211 10 17782 -45 
212 10 17782 -45 
213 10 15848 -44 
214 11 15848 -44 
215 10 17782 -45 
216 10 10000 -40 
217 11 15848 -44 
218 10 17782 -45 
219 10 10000 -40 
220 10 11220 -41 
221 10 15848 -44 
222 11 10000 -40 
223 10 10000 -40 
224 11 17782 -45 
225 11 15848 -44 
226 10 17782 -45 
227 11 17782 -45 
228 10 10000 -40 
229 10 17782 -45 
230 10 10000 -40 
231 11 15848 -44 
232 10 11220 -41 
233 11 17782 -45 
234 10 11220 -41 
235 11 19952 -46 
236 10 10000 -40 
237 10 15848 -44 
238 10 19952 -46 
239 11 8912 -39 
240 10 8912 -39 
241 11 15848 -44 
242 10 17782 -45 
243 11 15848 -44 
244 10 17782 -45 
245 11 15848 -44 
246 11 10000 -40 
247 10 17782 -45 
248 11 10000 -40 
249 10 15848 -44 
