********************************************************************************
Obsolete PIO Core v4.3.1 is used (previous was 4.3.4)
Please remove multiple PIO Cores from a system:
https://docs.platformio.org/page/faq.html#multiple-pio-cores-in-a-system
********************************************************************************
--- Available filters and text transformations: colorize, debug, default, direct, hexlify, log2file, nocontrol, printable, send_on_enter, time
--- More details at http://bit.ly/pio-monitor-filters
0 11 19952 -46 
1 10 15848 -44 
2 11 15848 -44 
3 10 14125 -43 
4 10 17782 -45 
5 11 15848 -44 
6 10 17782 -45 
7 11 15848 -44 
8 10 15848 -44 
9 11 17782 -45 
10 10 15848 -44 
11 11 17782 -45 
12 11 14125 -43 
13 10 15848 -44 
14 11 25118 -48 
15 10 15848 -44 
16 11 15848 -44 
17 10 15848 -44 
18 11 14125 -43 
19 10 15848 -44 
20 11 17782 -45 
21 10 25118 -48 
22 11 15848 -44 
23 10 15848 -44 
24 10 15848 -44 
25 10 15848 -44 
26 11 14125 -43 
27 10 15848 -44 
28 10 17782 -45 
29 11 17782 -45 
30 10 17782 -45 
31 10 17782 -45 
32 10 14125 -43 
33 11 17782 -45 
34 11 14125 -43 
35 10 17782 -45 
36 11 15848 -44 
37 10 14125 -43 
38 11 15848 -44 
39 10 15848 -44 
40 10 15848 -44 
41 11 15848 -44 
42 10 17782 -45 
43 11 28183 -49 
44 10 15848 -44 
45 11 177827 -65 
46 10 15848 -44 
47 10 15848 -44 
48 10 15848 -44 
49 11 17782 -45 
50 10 177827 -65 
51 11 15848 -44 
52 10 17782 -45 
53 11 15848 -44 
54 10 15848 -44 
55 11 15848 -44 
56 10 17782 -45 
57 11 19952 -46 
58 10 14125 -43 
59 11 15848 -44 
60 10 17782 -45 
61 11 15848 -44 
62 10 158489 -64 
63 11 25118 -48 
64 10 17782 -45 
65 10 17782 -45 
66 11 14125 -43 
67 10 15848 -44 
68 10 19952 -46 
69 10 15848 -44 
70 10 15848 -44 
71 11 17782 -45 
72 10 15848 -44 
73 10 14125 -43 
74 11 14125 -43 
75 10 15848 -44 
76 11 70794 -57 
77 10 15848 -44 
78 11 19952 -46 
79 10 15848 -44 
80 11 15848 -44 
81 10 17782 -45 
82 11 15848 -44 
83 11 15848 -44 
84 11 19952 -46 
85 10 15848 -44 
86 11 15848 -44 
87 10 17782 -45 
88 11 15848 -44 
89 10 15848 -44 
90 11 15848 -44 
91 11 15848 -44 
92 10 15848 -44 
93 11 15848 -44 
94 10 15848 -44 
95 11 17782 -45 
96 10 17782 -45 
97 11 15848 -44 
98 11 15848 -44 
99 10 17782 -45 
100 11 17782 -45 
101 10 17782 -45 
102 11 17782 -45 
103 10 15848 -44 
104 11 15848 -44 
105 10 14125 -43 
106 10 19952 -46 
107 11 15848 -44 
108 11 14125 -43 
109 10 17782 -45 
110 11 17782 -45 
111 10 25118 -48 
112 11 14125 -43 
113 10 15848 -44 
114 11 63095 -56 
115 10 15848 -44 
116 11 17782 -45 
117 10 15848 -44 
118 11 15848 -44 
119 10 15848 -44 
120 11 15848 -44 
121 10 15848 -44 
122 11 17782 -45 
123 11 15848 -44 
124 10 15848 -44 
125 11 19952 -46 
126 10 15848 -44 
127 11 15848 -44 
128 10 17782 -45 
129 10 14125 -43 
130 11 17782 -45 
131 10 70794 -57 
132 10 17782 -45 
133 10 14125 -43 
134 10 17782 -45 
135 10 17782 -45 
136 11 17782 -45 
137 11 14125 -43 
138 11 15848 -44 
139 10 15848 -44 
140 11 14125 -43 
141 10 15848 -44 
142 11 15848 -44 
143 10 15848 -44 
144 11 15848 -44 
145 10 15848 -44 
146 11 15848 -44 
147 10 15848 -44 
148 11 15848 -44 
149 10 19952 -46 
150 11 17782 -45 
151 10 15848 -44 
152 11 17782 -45 
153 10 15848 -44 
154 11 17782 -45 
155 10 17782 -45 
156 11 19952 -46 
157 11 19952 -46 
158 10 15848 -44 
159 11 19952 -46 
160 10 14125 -43 
161 10 22387 -47 
162 10 15848 -44 
163 11 14125 -43 
164 10 15848 -44 
165 11 14125 -43 
166 10 15848 -44 
167 11 15848 -44 
168 10 15848 -44 
169 11 17782 -45 
170 10 15848 -44 
171 10 14125 -43 
172 11 15848 -44 
173 11 15848 -44 
174 10 17782 -45 
175 11 15848 -44 
176 10 17782 -45 
177 10 70794 -57 
178 11 15848 -44 
179 10 17782 -45 
180 11 15848 -44 
181 10 17782 -45 
182 10 17782 -45 
183 10 17782 -45 
184 11 17782 -45 
185 10 15848 -44 
186 11 14125 -43 
187 10 15848 -44 
188 11 19952 -46 
189 10 17782 -45 
190 11 15848 -44 
191 10 14125 -43 
192 11 17782 -45 
193 11 17782 -45 
194 10 17782 -45 
195 10 17782 -45 
196 11 17782 -45 
197 11 15848 -44 
198 10 15848 -44 
199 10 15848 -44 
200 11 70794 -57 
201 10 17782 -45 
202 11 15848 -44 
203 10 19952 -46 
204 11 17782 -45 
205 11 15848 -44 
206 10 17782 -45 
207 10 15848 -44 
208 10 17782 -45 
209 10 354813 -71 
210 11 17782 -45 
211 10 17782 -45 
212 11 17782 -45 
213 11 14125 -43 
214 10 14125 -43 
215 10 17782 -45 
216 11 15848 -44 
217 10 15848 -44 
218 11 17782 -45 
219 10 15848 -44 
220 10 15848 -44 
221 10 19952 -46 
222 11 15848 -44 
223 10 17782 -45 
224 11 15848 -44 
225 11 17782 -45 
226 10 19952 -46 
227 11 15848 -44 
228 10 17782 -45 
229 11 15848 -44 
230 10 15848 -44 
231 11 15848 -44 
232 10 17782 -45 
233 11 19952 -46 
234 10 15848 -44 
235 11 17782 -45 
236 10 15848 -44 
237 11 15848 -44 
238 10 15848 -44 
239 11 19952 -46 
240 10 17782 -45 
241 11 70794 -57 
242 10 17782 -45 
243 11 15848 -44 
244 10 17782 -45 
245 11 15848 -44 
246 10 15848 -44 
247 11 19952 -46 
248 10 17782 -45 
249 11 15848 -44 
