********************************************************************************
Obsolete PIO Core v4.3.1 is used (previous was 4.3.4)
Please remove multiple PIO Cores from a system:
https://docs.platformio.org/page/faq.html#multiple-pio-cores-in-a-system
********************************************************************************
--- Available filters and text transformations: colorize, debug, default, direct, hexlify, log2file, nocontrol, printable, send_on_enter, time
--- More details at http://bit.ly/pio-monitor-filters
0 10 1122 -21 
1 11 1258 -22 
2 10 1258 -22 
3 10 1412 -23 
4 10 1412 -23 
5 10 1258 -22 
6 11 1122 -21 
7 10 1412 -23 
8 11 1258 -22 
9 10 1122 -21 
10 11 1258 -22 
11 11 1258 -22 
12 10 1412 -23 
13 11 1258 -22 
14 10 1122 -21 
15 11 1258 -22 
16 10 1258 -22 
17 10 1258 -22 
18 11 1412 -23 
19 11 1258 -22 
20 10 1258 -22 
21 11 1258 -22 
22 11 1122 -21 
23 11 1122 -21 
24 10 1258 -22 
25 10 1412 -23 
26 10 1258 -22 
27 11 1122 -21 
28 10 1258 -22 
29 10 1122 -21 
30 10 1258 -22 
31 10 1258 -22 
32 10 1258 -22 
33 10 1258 -22 
34 11 1122 -21 
35 10 1258 -22 
36 11 1258 -22 
37 10 1412 -23 
38 10 1258 -22 
39 11 158489 -64 
40 10 100000 -60 
41 11 1122 -21 
42 10 1258 -22 
43 11 1122 -21 
44 10 1258 -22 
45 11 1412 -23 
46 10 1258 -22 
47 10 1412 -23 
48 11 1122 -21 
49 10 1122 -21 
50 11 1258 -22 
51 10 1258 -22 
52 11 1122 -21 
53 11 1258 -22 
54 10 1412 -23 
55 11 1258 -22 
56 11 1258 -22 
57 10 1412 -23 
58 11 199526 -66 
59 10 1122 -21 
60 10 1258 -22 
61 10 1258 -22 
62 11 1258 -22 
63 10 1258 -22 
64 10 1258 -22 
65 10 1258 -22 
66 10 1258 -22 
67 11 1258 -22 
68 10 1258 -22 
69 11 1258 -22 
70 10 1412 -23 
71 10 1412 -23 
72 10 1258 -22 
73 11 1258 -22 
74 10 158489 -64 
75 11 1412 -23 
76 10 1258 -22 
77 10 1412 -23 
78 11 1258 -22 
79 10 1412 -23 
80 11 1258 -22 
81 10 1122 -21 
82 10 1258 -22 
83 10 1258 -22 
84 10 1122 -21 
85 10 1258 -22 
86 10 1258 -22 
87 10 1258 -22 
88 10 1412 -23 
89 10 1122 -21 
90 10 1412 -23 
91 10 1412 -23 
92 11 1412 -23 
93 10 1258 -22 
94 11 1122 -21 
95 10 1258 -22 
96 11 1122 -21 
97 10 1258 -22 
98 10 1584 -24 
99 10 1122 -21 
100 11 1258 -22 
101 10 1258 -22 
102 11 1258 -22 
103 10 1258 -22 
104 10 1258 -22 
105 11 1412 -23 
106 10 1258 -22 
107 11 1412 -23 
108 11 1258 -22 
109 11 223872 -67 
110 10 1412 -23 
111 11 1258 -22 
112 10 1584 -24 
113 11 1258 -22 
114 10 1122 -21 
115 11 1412 -23 
116 10 1122 -21 
117 10 1122 -21 
118 10 1258 -22 
119 11 1258 -22 
120 11 158489 -64 
121 10 251188 -68 
122 11 1258 -22 
123 10 1122 -21 
124 11 1258 -22 
125 10 1258 -22 
126 11 1122 -21 
127 10 1412 -23 
128 11 1122 -21 
129 10 1412 -23 
130 11 1412 -23 
131 10 1258 -22 
132 11 1412 -23 
133 11 1258 -22 
134 11 1258 -22 
135 10 1122 -21 
136 11 1258 -22 
137 10 1258 -22 
138 11 1258 -22 
139 11 1412 -23 
140 10 1412 -23 
141 10 1258 -22 
142 11 1258 -22 
143 10 1258 -22 
144 10 1258 -22 
145 11 1258 -22 
146 10 1258 -22 
147 10 1258 -22 
148 10 1258 -22 
149 11 1258 -22 
150 10 1122 -21 
151 10 1412 -23 
152 11 1258 -22 
153 10 1584 -24 
154 11 1258 -22 
155 10 1258 -22 
156 10 1122 -21 
157 10 1258 -22 
158 11 1258 -22 
159 10 1122 -21 
160 11 1584 -24 
161 10 1122 -21 
162 11 1412 -23 
163 10 1412 -23 
164 10 1412 -23 
165 10 1412 -23 
166 11 1258 -22 
167 11 1412 -23 
168 10 1412 -23 
169 11 1412 -23 
170 11 1258 -22 
171 10 1412 -23 
172 11 1122 -21 
173 10 1122 -21 
174 10 1258 -22 
175 11 1258 -22 
176 10 1584 -24 
177 11 1258 -22 
178 10 1258 -22 
179 11 1258 -22 
180 10 1122 -21 
181 11 1258 -22 
182 10 1258 -22 
183 11 1258 -22 
184 10 1258 -22 
185 11 1412 -23 
186 10 1412 -23 
187 10 1412 -23 
188 11 1122 -21 
189 10 1258 -22 
190 10 1122 -21 
191 11 1412 -23 
192 11 1412 -23 
193 10 1258 -22 
194 11 1258 -22 
195 10 1412 -23 
196 10 1258 -22 
197 10 1412 -23 
198 10 1258 -22 
199 11 1258 -22 
200 10 1412 -23 
201 11 1258 -22 
202 10 1258 -22 
203 11 1412 -23 
204 10 1258 -22 
205 11 1412 -23 
206 10 1412 -23 
207 11 1122 -21 
208 11 1258 -22 
209 11 1122 -21 
210 10 1258 -22 
211 11 1122 -21 
212 10 1258 -22 
213 11 1258 -22 
214 10 1258 -22 
215 11 1258 -22 
216 10 1412 -23 
217 11 1584 -24 
218 10 1258 -22 
219 11 1122 -21 
220 10 1258 -22 
221 10 1122 -21 
222 11 1412 -23 
223 10 1412 -23 
224 10 1412 -23 
225 10 1258 -22 
226 11 1412 -23 
227 11 1258 -22 
228 11 1258 -22 
229 10 1258 -22 
230 11 1258 -22 
231 11 1412 -23 
232 10 1258 -22 
233 10 1412 -23 
234 10 1258 -22 
235 11 141253 -63 
236 10 1412 -23 
237 11 1258 -22 
238 10 1258 -22 
239 10 1258 -22 
240 11 1258 -22 
241 10 1258 -22 
242 11 1412 -23 
243 11 1122 -21 
244 10 1258 -22 
245 11 158489 -64 
246 10 1412 -23 
247 11 1258 -22 
248 10 1258 -22 
249 11 1412 -23 
