********************************************************************************
Obsolete PIO Core v4.3.1 is used (previous was 4.3.4)
Please remove multiple PIO Cores from a system:
https://docs.platformio.org/page/faq.html#multiple-pio-cores-in-a-system
********************************************************************************
--- Available filters and text transformations: colorize, debug, default, direct, hexlify, log2file, nocontrol, printable, send_on_enter, time
--- More details at http://bit.ly/pio-monitor-filters
0 10 44668 -53 
1 11 44668 -53 
2 11 39810 -52 
3 10 39810 -52 
4 11 50118 -54 
5 11 44668 -53 
6 10 44668 -53 
7 10 50118 -54 
8 11 39810 -52 
9 10 35481 -51 
10 10 31622 -50 
11 11 31622 -50 
12 10 31622 -50 
13 11 39810 -52 
14 10 39810 -52 
15 11 35481 -51 
16 11 398107 -72 
17 10 44668 -53 
18 10 50118 -54 
19 10 50118 -54 
20 11 50118 -54 
21 10 50118 -54 
22 11 39810 -52 
23 10 35481 -51 
24 11 39810 -52 
25 10 31622 -50 
26 10 39810 -52 
27 11 39810 -52 
28 10 56234 -55 
29 11 50118 -54 
30 10 39810 -52 
31 10 44668 -53 
32 10 50118 -54 
33 10 39810 -52 
34 10 50118 -54 
35 10 56234 -55 
36 10 56234 -55 
37 11 44668 -53 
38 10 44668 -53 
39 11 39810 -52 
40 10 39810 -52 
41 11 44668 -53 
42 10 44668 -53 
43 10 44668 -53 
44 11 50118 -54 
45 10 39810 -52 
46 11 44668 -53 
47 10 50118 -54 
48 11 50118 -54 
49 10 44668 -53 
50 11 50118 -54 
51 10 50118 -54 
52 11 44668 -53 
53 11 44668 -53 
54 11 44668 -53 
55 10 50118 -54 
56 11 50118 -54 
57 10 56234 -55 
58 10 56234 -55 
59 11 50118 -54 
60 10 50118 -54 
61 11 56234 -55 
62 10 56234 -55 
63 11 50118 -54 
64 10 56234 -55 
65 11 50118 -54 
66 10 63095 -56 
67 11 56234 -55 
68 10 56234 -55 
69 11 56234 -55 
70 10 50118 -54 
71 10 50118 -54 
72 11 56234 -55 
73 10 56234 -55 
74 10 56234 -55 
75 10 50118 -54 
76 11 56234 -55 
77 10 63095 -56 
78 11 50118 -54 
79 10 50118 -54 
80 11 50118 -54 
81 10 50118 -54 
82 11 50118 -54 
83 11 56234 -55 
84 10 56234 -55 
85 11 50118 -54 
86 10 50118 -54 
87 11 50118 -54 
88 10 50118 -54 
89 11 63095 -56 
90 11 56234 -55 
91 10 50118 -54 
92 10 44668 -53 
93 10 50118 -54 
94 10 50118 -54 
95 10 50118 -54 
96 11 398107 -72 
97 10 50118 -54 
98 11 50118 -54 
99 10 50118 -54 
100 11 44668 -53 
101 10 50118 -54 
102 11 44668 -53 
103 11 50118 -54 
104 10 50118 -54 
105 11 50118 -54 
106 10 50118 -54 
107 11 50118 -54 
108 10 50118 -54 
109 11 50118 -54 
110 10 199526 -66 
111 11 50118 -54 
112 10 50118 -54 
113 11 50118 -54 
114 10 56234 -55 
115 11 44668 -53 
116 10 50118 -54 
117 11 50118 -54 
118 10 44668 -53 
119 11 44668 -53 
120 10 50118 -54 
121 11 44668 -53 
122 11 112201 -61 
123 10 44668 -53 
124 11 56234 -55 
125 11 56234 -55 
126 10 50118 -54 
127 11 50118 -54 
128 10 44668 -53 
129 11 44668 -53 
130 10 44668 -53 
131 10 50118 -54 
132 11 44668 -53 
133 10 50118 -54 
134 11 50118 -54 
135 10 56234 -55 
136 11 44668 -53 
137 10 44668 -53 
138 10 56234 -55 
139 11 44668 -53 
140 10 50118 -54 
141 10 44668 -53 
142 11 56234 -55 
143 10 50118 -54 
144 11 44668 -53 
145 10 50118 -54 
146 11 44668 -53 
147 10 56234 -55 
148 11 39810 -52 
149 10 50118 -54 
150 11 50118 -54 
151 10 56234 -55 
152 10 39810 -52 
153 11 39810 -52 
154 10 50118 -54 
155 10 50118 -54 
156 11 50118 -54 
157 10 56234 -55 
158 11 63095 -56 
159 11 56234 -55 
160 10 39810 -52 
161 10 50118 -54 
162 11 50118 -54 
163 10 50118 -54 
164 11 50118 -54 
165 10 56234 -55 
166 11 70794 -57 
167 10 79432 -58 
168 11 89125 -59 
169 10 70794 -57 
170 11 63095 -56 
171 10 70794 -57 
172 11 63095 -56 
173 11 70794 -57 
174 10 56234 -55 
175 10 70794 -57 
176 10 50118 -54 
177 10 50118 -54 
178 10 39810 -52 
179 11 44668 -53 
180 11 35481 -51 
181 10 31622 -50 
182 10 31622 -50 
183 11 35481 -51 
184 11 35481 -51 
185 10 44668 -53 
186 11 44668 -53 
187 11 50118 -54 
188 10 44668 -53 
189 11 44668 -53 
190 10 50118 -54 
191 11 63095 -56 
192 10 56234 -55 
193 11 56234 -55 
194 11 56234 -55 
195 10 44668 -53 
196 11 44668 -53 
197 10 44668 -53 
198 10 35481 -51 
199 11 44668 -53 
200 10 44668 -53 
201 11 39810 -52 
202 10 44668 -53 
203 11 39810 -52 
204 10 39810 -52 
205 11 39810 -52 
206 10 56234 -55 
207 11 44668 -53 
208 10 44668 -53 
209 11 50118 -54 
210 10 56234 -55 
211 11 63095 -56 
212 10 56234 -55 
213 10 56234 -55 
214 10 56234 -55 
215 10 50118 -54 
216 11 50118 -54 
217 10 56234 -55 
218 10 44668 -53 
219 10 56234 -55 
220 11 44668 -53 
221 11 44668 -53 
222 10 50118 -54 
223 11 44668 -53 
224 10 44668 -53 
225 11 50118 -54 
226 10 50118 -54 
227 11 44668 -53 
228 10 50118 -54 
229 11 44668 -53 
230 10 44668 -53 
231 11 39810 -52 
232 10 44668 -53 
233 11 44668 -53 
234 10 50118 -54 
235 10 39810 -52 
236 11 44668 -53 
237 10 39810 -52 
238 10 39810 -52 
239 10 44668 -53 
240 11 39810 -52 
241 10 39810 -52 
242 11 39810 -52 
243 10 39810 -52 
244 11 35481 -51 
245 11 39810 -52 
246 10 35481 -51 
247 11 39810 -52 
248 10 39810 -52 
249 10 35481 -51 
