********************************************************************************
Obsolete PIO Core v4.3.1 is used (previous was 4.3.4)
Please remove multiple PIO Cores from a system:
https://docs.platformio.org/page/faq.html#multiple-pio-cores-in-a-system
********************************************************************************
--- Available filters and text transformations: colorize, debug, default, direct, hexlify, log2file, nocontrol, printable, send_on_enter, time
--- More details at http://bit.ly/pio-monitor-filters
0 11 141253 -63 
1 11 158489 -64 
2 10 158489 -64 
3 11 158489 -64 
4 10 125892 -62 
5 11 125892 -62 
6 10 125892 -62 
7 10 89125 -59 
8 11 100000 -60 
9 10 89125 -59 
10 10 100000 -60 
11 10 398107 -72 
12 10 125892 -62 
13 11 141253 -63 
14 11 251188 -68 
15 10 281838 -69 
16 11 251188 -68 
17 10 223872 -67 
18 11 199526 -66 
19 10 199526 -66 
20 11 223872 -67 
21 10 199526 -66 
22 10 177827 -65 
23 10 199526 -66 
24 10 177827 -65 
25 11 177827 -65 
26 10 177827 -65 
27 10 177827 -65 
28 11 141253 -63 
29 10 158489 -64 
30 10 251188 -68 
31 10 158489 -64 
32 10 112201 -61 
33 10 112201 -61 
34 10 112201 -61 
35 11 158489 -64 
36 10 223872 -67 
37 10 125892 -62 
38 10 141253 -63 
39 11 141253 -63 
40 10 177827 -65 
41 10 354813 -71 
42 11 199526 -66 
43 10 141253 -63 
44 10 158489 -64 
45 11 223872 -67 
46 10 281838 -69 
47 11 223872 -67 
48 10 223872 -67 
49 11 158489 -64 
50 10 141253 -63 
51 11 177827 -65 
52 10 199526 -66 
53 11 223872 -67 
54 10 223872 -67 
55 11 281838 -69 
56 10 251188 -68 
57 11 251188 -68 
58 10 223872 -67 
59 11 223872 -67 
60 10 158489 -64 
61 10 125892 -62 
62 11 125892 -62 
63 10 141253 -63 
64 11 141253 -63 
65 10 141253 -63 
66 10 316227 -70 
67 10 316227 -70 
68 10 354813 -71 
69 10 316227 -70 
70 11 281838 -69 
71 10 251188 -68 
72 10 223872 -67 
73 10 177827 -65 
74 11 158489 -64 
75 10 158489 -64 
76 11 158489 -64 
77 10 125892 -62 
78 10 125892 -62 
79 11 125892 -62 
80 10 112201 -61 
81 11 112201 -61 
82 10 89125 -59 
83 11 89125 -59 
84 11 100000 -60 
85 10 112201 -61 
86 11 112201 -61 
87 10 316227 -70 
88 10 281838 -69 
89 10 223872 -67 
90 11 141253 -63 
91 10 125892 -62 
92 11 141253 -63 
93 11 177827 -65 
94 10 316227 -70 
95 10 354813 -71 
96 10 354813 -71 
97 11 398107 -72 
98 11 251188 -68 
99 10 223872 -67 
100 11 177827 -65 
101 10 177827 -65 
102 11 177827 -65 
103 10 177827 -65 
104 10 251188 -68 
105 10 199526 -66 
106 10 199526 -66 
107 10 223872 -67 
108 11 251188 -68 
109 10 398107 -72 
110 10 354813 -71 
111 11 281838 -69 
112 10 281838 -69 
113 11 316227 -70 
114 10 316227 -70 
115 11 199526 -66 
116 10 223872 -67 
117 11 158489 -64 
118 10 177827 -65 
119 11 177827 -65 
120 10 251188 -68 
121 11 398107 -72 
122 10 354813 -71 
123 11 251188 -68 
124 11 316227 -70 
125 11 199526 -66 
126 10 177827 -65 
127 10 141253 -63 
128 10 125892 -62 
129 10 112201 -61 
130 11 112201 -61 
131 10 125892 -62 
132 11 177827 -65 
133 11 223872 -67 
134 10 199526 -66 
135 11 199526 -66 
136 10 223872 -67 
137 11 199526 -66 
138 10 177827 -65 
139 11 199526 -66 
140 10 177827 -65 
141 11 158489 -64 
142 10 141253 -63 
143 11 112201 -61 
144 10 112201 -61 
145 11 125892 -62 
146 10 125892 -62 
147 11 141253 -63 
148 11 158489 -64 
149 10 158489 -64 
150 11 177827 -65 
151 10 199526 -66 
152 10 251188 -68 
153 10 223872 -67 
154 11 251188 -68 
155 10 223872 -67 
156 11 223872 -67 
157 10 177827 -65 
158 11 158489 -64 
159 10 141253 -63 
160 10 125892 -62 
161 10 112201 -61 
162 11 89125 -59 
163 11 100000 -60 
164 10 79432 -58 
165 11 70794 -57 
166 10 89125 -59 
167 11 89125 -59 
168 10 112201 -61 
169 11 112201 -61 
170 10 125892 -62 
171 10 125892 -62 
172 11 158489 -64 
173 10 141253 -63 
174 11 158489 -64 
175 11 177827 -65 
176 10 251188 -68 
177 11 251188 -68 
178 10 316227 -70 
179 10 281838 -69 
180 11 251188 -68 
181 10 223872 -67 
182 11 251188 -68 
183 10 251188 -68 
184 11 281838 -69 
185 10 251188 -68 
186 11 251188 -68 
187 10 251188 -68 
188 11 223872 -67 
189 11 199526 -66 
190 10 158489 -64 
191 11 141253 -63 
192 10 125892 -62 
193 11 112201 -61 
194 11 112201 -61 
195 10 125892 -62 
196 11 141253 -63 
197 10 177827 -65 
198 11 177827 -65 
199 10 251188 -68 
200 11 281838 -69 
201 10 446683 -73 
202 11 446683 -73 
203 10 354813 -71 
204 10 177827 -65 
205 11 223872 -67 
206 10 177827 -65 
207 11 158489 -64 
208 10 177827 -65 
209 11 177827 -65 
210 10 199526 -66 
211 11 223872 -67 
212 10 223872 -67 
213 11 281838 -69 
214 10 251188 -68 
215 11 281838 -69 
216 10 251188 -68 
217 11 281838 -69 
218 10 281838 -69 
219 11 251188 -68 
220 10 251188 -68 
221 11 281838 -69 
222 10 251188 -68 
223 11 281838 -69 
224 10 251188 -68 
225 10 316227 -70 
226 11 251188 -68 
227 10 199526 -66 
228 10 199526 -66 
229 11 223872 -67 
230 10 199526 -66 
231 11 177827 -65 
232 11 177827 -65 
233 11 199526 -66 
234 10 199526 -66 
235 11 223872 -67 
236 10 251188 -68 
237 10 316227 -70 
238 10 281838 -69 
239 10 281838 -69 
240 11 281838 -69 
241 10 223872 -67 
242 11 251188 -68 
243 10 251188 -68 
244 10 251188 -68 
245 11 251188 -68 
246 10 316227 -70 
247 11 251188 -68 
248 11 281838 -69 
249 10 251188 -68 
