********************************************************************************
Obsolete PIO Core v4.3.1 is used (previous was 4.3.4)
Please remove multiple PIO Cores from a system:
https://docs.platformio.org/page/faq.html#multiple-pio-cores-in-a-system
********************************************************************************
--- Available filters and text transformations: colorize, debug, default, direct, hexlify, log2file, nocontrol, printable, send_on_enter, time
--- More details at http://bit.ly/pio-monitor-filters
0 11 56234 -55 
1 10 56234 -55 
2 11 50118 -54 
3 10 56234 -55 
4 11 50118 -54 
5 10 50118 -54 
6 11 50118 -54 
7 10 63095 -56 
8 11 56234 -55 
9 10 50118 -54 
10 11 56234 -55 
11 10 50118 -54 
12 11 56234 -55 
13 10 50118 -54 
14 11 44668 -53 
15 10 44668 -53 
16 10 50118 -54 
17 11 44668 -53 
18 10 50118 -54 
19 10 44668 -53 
20 10 50118 -54 
21 10 44668 -53 
22 10 56234 -55 
23 11 50118 -54 
24 11 63095 -56 
25 10 56234 -55 
26 11 50118 -54 
27 11 50118 -54 
28 10 50118 -54 
29 11 50118 -54 
30 10 56234 -55 
31 11 50118 -54 
32 10 50118 -54 
33 11 50118 -54 
34 10 39810 -52 
35 11 63095 -56 
36 10 50118 -54 
37 11 56234 -55 
38 10 50118 -54 
39 11 50118 -54 
40 11 44668 -53 
41 10 56234 -55 
42 11 50118 -54 
43 10 79432 -58 
44 11 50118 -54 
45 10 50118 -54 
46 11 50118 -54 
47 10 50118 -54 
48 11 50118 -54 
49 10 44668 -53 
50 11 50118 -54 
51 11 44668 -53 
52 10 50118 -54 
53 11 50118 -54 
54 10 50118 -54 
55 11 50118 -54 
56 10 56234 -55 
57 10 56234 -55 
58 11 56234 -55 
59 10 63095 -56 
60 11 63095 -56 
61 10 56234 -55 
62 10 63095 -56 
63 11 56234 -55 
64 10 56234 -55 
65 11 56234 -55 
66 10 316227 -70 
67 10 44668 -53 
68 10 44668 -53 
69 11 56234 -55 
70 10 50118 -54 
71 11 50118 -54 
72 11 56234 -55 
73 10 50118 -54 
74 11 56234 -55 
75 10 50118 -54 
76 11 44668 -53 
77 10 50118 -54 
78 11 50118 -54 
79 10 39810 -52 
80 10 44668 -53 
81 11 44668 -53 
82 10 44668 -53 
83 11 50118 -54 
84 10 44668 -53 
85 11 50118 -54 
86 10 50118 -54 
87 10 63095 -56 
88 10 50118 -54 
89 11 44668 -53 
90 10 44668 -53 
91 11 44668 -53 
92 11 50118 -54 
93 10 56234 -55 
94 11 44668 -53 
95 10 44668 -53 
96 11 39810 -52 
97 10 39810 -52 
98 11 44668 -53 
99 10 44668 -53 
100 11 39810 -52 
101 10 44668 -53 
102 11 50118 -54 
103 10 50118 -54 
104 11 44668 -53 
105 10 50118 -54 
106 11 50118 -54 
107 10 56234 -55 
108 11 63095 -56 
109 10 50118 -54 
110 11 70794 -57 
111 10 56234 -55 
112 11 50118 -54 
113 11 50118 -54 
114 10 50118 -54 
115 11 56234 -55 
116 11 50118 -54 
117 10 63095 -56 
118 11 50118 -54 
119 10 56234 -55 
120 10 56234 -55 
121 11 50118 -54 
122 10 56234 -55 
123 11 56234 -55 
124 10 56234 -55 
125 11 44668 -53 
126 10 354813 -71 
127 10 44668 -53 
128 11 56234 -55 
129 10 50118 -54 
130 11 56234 -55 
131 10 50118 -54 
132 11 56234 -55 
133 10 63095 -56 
134 11 56234 -55 
135 10 63095 -56 
136 11 50118 -54 
137 10 50118 -54 
138 11 50118 -54 
139 10 56234 -55 
140 11 50118 -54 
141 10 50118 -54 
142 10 50118 -54 
143 11 316227 -70 
144 10 50118 -54 
145 11 70794 -57 
146 10 50118 -54 
147 10 50118 -54 
148 10 50118 -54 
149 11 56234 -55 
150 10 50118 -54 
151 11 50118 -54 
152 11 56234 -55 
153 10 39810 -52 
154 11 50118 -54 
155 10 44668 -53 
156 11 44668 -53 
157 10 50118 -54 
158 11 44668 -53 
159 10 50118 -54 
160 11 50118 -54 
161 11 50118 -54 
162 10 50118 -54 
163 11 56234 -55 
164 11 50118 -54 
165 10 44668 -53 
166 11 50118 -54 
167 10 50118 -54 
168 11 50118 -54 
169 10 44668 -53 
170 10 50118 -54 
171 10 50118 -54 
172 10 50118 -54 
173 11 50118 -54 
174 11 50118 -54 
175 10 44668 -53 
176 11 50118 -54 
177 10 50118 -54 
178 11 50118 -54 
179 10 56234 -55 
180 11 44668 -53 
181 10 50118 -54 
182 11 50118 -54 
183 10 44668 -53 
184 10 63095 -56 
185 11 44668 -53 
186 10 44668 -53 
187 11 44668 -53 
188 10 44668 -53 
189 11 44668 -53 
190 10 50118 -54 
191 11 50118 -54 
192 10 44668 -53 
193 10 50118 -54 
194 10 44668 -53 
195 10 50118 -54 
196 10 50118 -54 
197 11 50118 -54 
198 10 281838 -69 
199 11 44668 -53 
200 10 50118 -54 
201 11 56234 -55 
202 10 39810 -52 
203 11 50118 -54 
204 10 44668 -53 
205 11 50118 -54 
206 10 39810 -52 
207 11 39810 -52 
208 10 44668 -53 
209 11 39810 -52 
210 10 44668 -53 
211 11 79432 -58 
212 10 44668 -53 
213 10 50118 -54 
214 11 50118 -54 
215 10 50118 -54 
216 11 50118 -54 
217 10 44668 -53 
218 11 44668 -53 
219 10 50118 -54 
220 11 50118 -54 
221 11 50118 -54 
222 10 50118 -54 
223 11 44668 -53 
224 10 50118 -54 
225 10 56234 -55 
226 10 44668 -53 
227 10 44668 -53 
228 11 56234 -55 
229 10 44668 -53 
230 11 44668 -53 
231 10 70794 -57 
232 11 50118 -54 
233 10 50118 -54 
234 11 79432 -58 
235 10 70794 -57 
236 11 44668 -53 
237 10 56234 -55 
238 10 39810 -52 
239 11 44668 -53 
240 10 44668 -53 
241 10 50118 -54 
242 11 50118 -54 
243 10 44668 -53 
244 11 44668 -53 
245 10 44668 -53 
246 10 44668 -53 
247 10 177827 -65 
248 10 39810 -52 
249 11 39810 -52 
