********************************************************************************
Obsolete PIO Core v4.3.1 is used (previous was 4.3.4)
Please remove multiple PIO Cores from a system:
https://docs.platformio.org/page/faq.html#multiple-pio-cores-in-a-system
********************************************************************************
--- Available filters and text transformations: colorize, debug, default, direct, hexlify, log2file, nocontrol, printable, send_on_enter, time
--- More details at http://bit.ly/pio-monitor-filters
0 11 223872 -67 
1 11 50118 -54 
2 10 44668 -53 
3 10 50118 -54 
4 10 50118 -54 
5 11 50118 -54 
6 11 50118 -54 
7 10 251188 -68 
8 11 44668 -53 
9 10 44668 -53 
10 11 501187 -74 
11 10 50118 -54 
12 11 50118 -54 
13 10 39810 -52 
14 10 56234 -55 
15 11 56234 -55 
16 10 56234 -55 
17 10 50118 -54 
18 11 50118 -54 
19 11 56234 -55 
20 10 50118 -54 
21 11 50118 -54 
22 10 56234 -55 
23 10 63095 -56 
24 11 50118 -54 
25 10 56234 -55 
26 11 63095 -56 
27 10 56234 -55 
28 11 63095 -56 
29 10 50118 -54 
30 11 50118 -54 
31 10 56234 -55 
32 11 50118 -54 
33 10 63095 -56 
34 11 50118 -54 
35 10 50118 -54 
36 11 50118 -54 
37 10 56234 -55 
38 11 63095 -56 
39 10 56234 -55 
40 10 56234 -55 
41 10 125892 -62 
42 10 70794 -57 
43 10 89125 -59 
44 10 89125 -59 
45 10 79432 -58 
46 10 100000 -60 
47 10 70794 -57 
48 10 70794 -57 
49 11 70794 -57 
50 10 70794 -57 
51 10 70794 -57 
52 10 70794 -57 
53 11 70794 -57 
54 10 70794 -57 
55 10 70794 -57 
56 11 70794 -57 
57 10 63095 -56 
58 10 63095 -56 
59 11 70794 -57 
60 10 79432 -58 
61 10 70794 -57 
62 11 70794 -57 
63 10 63095 -56 
64 11 89125 -59 
65 10 79432 -58 
66 11 70794 -57 
67 10 70794 -57 
68 11 63095 -56 
69 10 89125 -59 
70 10 89125 -59 
71 11 89125 -59 
72 10 63095 -56 
73 11 63095 -56 
74 10 70794 -57 
75 10 56234 -55 
76 11 50118 -54 
77 10 44668 -53 
78 11 50118 -54 
79 10 44668 -53 
80 11 70794 -57 
81 10 35481 -51 
82 11 39810 -52 
83 10 39810 -52 
84 11 39810 -52 
85 10 39810 -52 
86 10 35481 -51 
87 11 35481 -51 
88 10 39810 -52 
89 11 35481 -51 
90 10 44668 -53 
91 10 39810 -52 
92 10 44668 -53 
93 10 79432 -58 
94 10 44668 -53 
95 10 39810 -52 
96 11 251188 -68 
97 11 35481 -51 
98 11 89125 -59 
99 11 25118 -48 
100 10 63095 -56 
101 11 31622 -50 
102 10 28183 -49 
103 11 31622 -50 
104 10 31622 -50 
105 11 31622 -50 
106 10 35481 -51 
107 11 39810 -52 
108 11 44668 -53 
109 10 50118 -54 
110 11 39810 -52 
111 10 39810 -52 
112 11 44668 -53 
113 10 44668 -53 
114 10 50118 -54 
115 10 50118 -54 
116 11 50118 -54 
117 11 35481 -51 
118 10 39810 -52 
119 11 31622 -50 
120 10 31622 -50 
121 10 251188 -68 
122 11 44668 -53 
123 10 56234 -55 
124 11 50118 -54 
125 10 56234 -55 
126 11 63095 -56 
127 10 56234 -55 
128 11 44668 -53 
129 10 35481 -51 
130 10 31622 -50 
131 10 31622 -50 
132 11 35481 -51 
133 10 39810 -52 
134 11 39810 -52 
135 10 251188 -68 
136 10 39810 -52 
137 10 39810 -52 
138 10 39810 -52 
139 10 39810 -52 
140 11 35481 -51 
141 10 35481 -51 
142 11 39810 -52 
143 10 39810 -52 
144 10 31622 -50 
145 11 31622 -50 
146 10 31622 -50 
147 11 35481 -51 
148 10 35481 -51 
149 11 31622 -50 
150 10 31622 -50 
151 11 79432 -58 
152 10 28183 -49 
153 11 28183 -49 
154 10 31622 -50 
155 11 31622 -50 
156 10 28183 -49 
157 11 35481 -51 
158 10 31622 -50 
159 11 28183 -49 
160 10 28183 -49 
161 11 31622 -50 
162 10 35481 -51 
163 11 31622 -50 
164 10 35481 -51 
165 11 35481 -51 
166 11 35481 -51 
167 10 35481 -51 
168 10 28183 -49 
169 11 28183 -49 
170 10 28183 -49 
171 11 28183 -49 
172 10 31622 -50 
173 11 28183 -49 
174 10 31622 -50 
175 11 70794 -57 
176 10 31622 -50 
177 11 141253 -63 
178 10 28183 -49 
179 11 28183 -49 
180 10 31622 -50 
181 10 31622 -50 
182 10 31622 -50 
183 11 35481 -51 
184 10 44668 -53 
185 10 39810 -52 
186 11 39810 -52 
187 10 44668 -53 
188 10 50118 -54 
189 10 39810 -52 
190 11 44668 -53 
191 10 44668 -53 
192 10 39810 -52 
193 10 35481 -51 
194 11 35481 -51 
195 10 39810 -52 
196 11 35481 -51 
197 11 39810 -52 
198 10 44668 -53 
199 11 50118 -54 
200 10 50118 -54 
201 11 50118 -54 
202 10 50118 -54 
203 11 44668 -53 
204 10 50118 -54 
205 11 63095 -56 
206 11 89125 -59 
207 10 100000 -60 
208 11 100000 -60 
209 10 112201 -61 
210 11 112201 -61 
211 10 89125 -59 
212 11 89125 -59 
213 10 79432 -58 
214 11 56234 -55 
215 10 63095 -56 
216 10 50118 -54 
217 11 50118 -54 
218 11 44668 -53 
219 10 56234 -55 
220 11 56234 -55 
221 11 158489 -64 
222 10 50118 -54 
223 11 44668 -53 
224 10 50118 -54 
225 11 50118 -54 
226 10 50118 -54 
227 11 44668 -53 
228 10 50118 -54 
229 10 70794 -57 
230 11 39810 -52 
231 11 39810 -52 
232 10 39810 -52 
233 11 39810 -52 
234 10 35481 -51 
235 10 39810 -52 
236 10 35481 -51 
237 11 35481 -51 
238 10 39810 -52 
239 11 35481 -51 
240 10 39810 -52 
241 10 39810 -52 
242 10 39810 -52 
243 10 39810 -52 
244 11 44668 -53 
245 11 70794 -57 
246 10 63095 -56 
247 11 50118 -54 
248 10 56234 -55 
249 11 63095 -56 
