0 2179 -44 15848
1 2179 -46 19952
2 2178 -47 22387
3 2178 -47 22387
4 2179 -44 15848
5 2178 -46 19952
6 2178 -48 25118
7 2178 -49 28183
8 2178 -46 19952
9 2178 -47 22387
10 2178 -45 17782
11 2179 -49 28183
12 2178 -47 22387
13 2179 -45 17782
14 2178 -48 25118
15 2178 -48 25118
16 2177 -46 19952
17 2178 -47 22387
18 2178 -46 19952
19 2178 -47 22387
20 2179 -46 19952
21 2178 -46 19952
22 2179 -46 19952
23 2178 -45 17782
24 2178 -46 19952
25 2178 -46 19952
26 2179 -47 22387
27 2178 -48 25118
28 2178 -48 25118
29 2179 -48 25118
30 2178 -47 22387
31 2178 -46 19952
32 2179 -49 28183
33 2178 -46 19952
34 2178 -46 19952
35 2178 -47 22387
36 2178 -47 22387
37 2178 -46 19952
38 2178 -46 19952
39 2178 -45 17782
40 2178 -46 19952
41 2178 -47 22387
42 2178 -47 22387
43 2178 -46 19952
44 2179 -45 17782
45 2178 -46 19952
46 2179 -45 17782
47 2178 -47 22387
48 2179 -45 17782
49 2178 -45 17782
50 2178 -48 25118
51 2179 -47 22387
52 2178 -45 17782
53 2178 -48 25118
54 2178 -45 17782
55 2178 -45 17782
56 2178 -48 25118
57 2178 -46 19952
58 2178 -45 17782
59 2179 -46 19952
60 2178 -47 22387
61 2178 -46 19952
62 2178 -48 25118
63 2178 -48 25118
64 2179 -45 17782
65 2178 -48 25118
66 2179 -47 22387
67 2178 -48 25118
68 2179 -45 17782
69 2178 -47 22387
70 2179 -46 19952
71 2178 -48 25118
72 2178 -47 22387
73 2179 -48 25118
74 2178 -50 31622
75 2178 -48 25118
76 2178 -46 19952
77 2179 -46 19952
78 2178 -47 22387
79 2179 -47 22387
80 2178 -47 22387
81 2178 -45 17782
82 2179 -47 22387
83 2178 -47 22387
84 2178 -46 19952
85 2178 -47 22387
86 2178 -45 17782
87 2179 -45 17782
88 2179 -44 15848
89 2178 -46 19952
90 2179 -47 22387
91 2178 -47 22387
92 2179 -47 22387
93 2178 -48 25118
94 2179 -47 22387
95 2179 -44 15848
96 2179 -47 22387
97 2178 -46 19952
98 2178 -47 22387
99 2179 -47 22387
