0 2178 -50 31622
1 2179 -48 25118
2 2179 -49 28183
3 2178 -47 22387
4 2178 -47 22387
5 2178 -48 25118
6 2178 -51 35481
7 2178 -52 39810
8 2178 -52 39810
9 2178 -48 25118
10 2179 -47 22387
11 2179 -47 22387
12 2178 -48 25118
13 2179 -48 25118
14 2178 -47 22387
15 2178 -47 22387
16 2178 -50 31622
17 2178 -47 22387
18 2179 -48 25118
19 2179 -49 28183
20 2178 -48 25118
21 2179 -47 22387
22 2178 -52 39810
23 2179 -48 25118
24 2178 -48 25118
25 2178 -48 25118
26 2178 -49 28183
27 2179 -48 25118
28 2178 -51 35481
29 2178 -47 22387
30 2179 -51 35481
31 2178 -48 25118
32 2179 -50 31622
33 2178 -53 44668
34 2178 -52 39810
35 2179 -51 35481
36 2178 -52 39810
37 2179 -46 19952
38 2178 -53 44668
39 2179 -48 25118
40 2178 -47 22387
41 2178 -47 22387
42 2179 -51 35481
43 2178 -51 35481
44 2179 -51 35481
45 2179 -53 44668
46 2178 -54 50118
47 2178 -48 25118
48 2178 -53 44668
49 2178 -49 28183
50 2178 -47 22387
51 2178 -53 44668
52 2178 -53 44668
53 2179 -52 39810
54 2178 -48 25118
55 2178 -48 25118
56 2179 -50 31622
57 2178 -53 44668
58 2178 -46 19952
59 2179 -46 19952
60 2178 -52 39810
61 2178 -47 22387
62 2178 -52 39810
63 2179 -52 39810
64 2178 -52 39810
65 2178 -49 28183
66 2179 -47 22387
67 2178 -49 28183
68 2179 -50 31622
69 2178 -49 28183
70 2178 -52 39810
71 2179 -51 35481
72 2178 -53 44668
73 2178 -52 39810
74 2179 -51 35481
75 2178 -45 17782
76 2179 -48 25118
77 2178 -50 31622
78 2178 -49 28183
79 2179 -47 22387
80 2178 -48 25118
81 2178 -48 25118
82 2178 -52 39810
83 2178 -48 25118
84 2178 -48 25118
85 2178 -47 22387
86 2178 -52 39810
87 2178 -49 28183
88 2178 -47 22387
89 2178 -46 19952
90 2179 -54 50118
91 2178 -50 31622
92 2178 -52 39810
93 2178 -53 44668
94 2179 -49 28183
95 2177 -53 44668
96 2178 -46 19952
97 2179 -49 28183
98 2178 -49 28183
99 2179 -49 28183
