668
668
664
668
660
668
TRANSMIT: Failed, response timed out.
668
668
668
632
668
660
668
636
660
668
664
668
640
664
636
660
668
636
668
636
660
640
664
640
640
664
640
660
668
668
664
636
660
636
660
668
668
664
668
632
668
668
660
636
660
668
668
664
668
660
664
668
632
668
632
668
668
668
640
660
636
660
636
TRANSMIT: Failed, response timed out.
640
668
636
660
TRANSMIT: Failed, response timed out.
668
660
636
668
660
668
632
636
660
640
668
660
664
660
636
668
632
668
660
668
636
668
636
664
640
664
640
668
660
TRANSMIT: Failed, response timed out.
636
660
640
664
640
668
660
668
660
636
668
632
TRANSMIT: Failed, response timed out.
668
660
TRANSMIT: Failed, response timed out.
664
664
668
636
668
TRANSMIT: Failed, response timed out.
668
660
668
660
TRANSMIT: Failed, response timed out.
636
668
TRANSMIT: Failed, response timed out.
636
668
660
636
664
668
636
664
668
660
668
636
668
668
660
636
660
668
664
664
668
660
636
668
660
668
632
668
668
664
640
664
668
668
664
640
664
668
668
TRANSMIT: Failed, response timed out.
668
636
660
TRANSMIT: Failed, response timed out.
636
664
668
660
TRANSMIT: Failed, response timed out.
668
668
660
636
660
668
636
636
TRANSMIT: Failed, response timed out.
640
660
668
660
668
636
660
668
664
668
TRANSMIT: Failed, response timed out.
TRANSMIT: Failed, response timed out.
660
636
668
660
668
632
636
664
668
668
TRANSMIT: Failed, response timed out.
664
TRANSMIT: Failed, response timed out.
636
660
668
660
668
636
664
636
TRANSMIT: Failed, response timed out.
664
668
668
TRANSMIT: Failed, response timed out.
668
636
632
668
660
668
TRANSMIT: Failed, response timed out.
TRANSMIT: Failed, response timed out.
664
668
668
664
TRANSMIT: Failed, response timed out.
TRANSMIT: Failed, response timed out.
668
664
668
664
668
TRANSMIT: Failed, response timed out.
TRANSMIT: Failed, response timed out.
668
668
668
660
668
660
668
668
632
636
664
640
636
660
636
664
668
668
668
668
664
668
668
636
640
632
640
632
668
668
668
636
664
668
632
636
668
664
668
660
668
668
664
668
632
668
668
664
636
660
668
632
668
668
660
640
660
668
668
632
668
664
636
668
660
640
664
668
664
668
668
664
640
660
668
636
660
668
660
668
636
664
636
632
668
668
668
668
664
668
668
640
640
664
636
660
668
636
632
668
660
668
668
632
668
660
636
628
640
668
660
668
664
668
668
664
668
660
636
636
636
668
660
668
